\relax 
\catcode `"\active 
\babel@aux{ngerman}{}
\@writefile{toc}{\contentsline {section}{\numberline {1}Pr\IeC {\"a}sentation von Arbeitsergebnissen}{4}\protected@file@percent }
\@writefile{toc}{\contentsline {subsection}{\numberline {1.1}Beschreibung der Pr\IeC {\"a}sentation}{4}\protected@file@percent }
\@writefile{toc}{\contentsline {subsection}{\numberline {1.2}Visualisierung}{6}\protected@file@percent }
\@writefile{lof}{\contentsline {figure}{\numberline {1}{\ignorespaces Selbsterstellter Prototyp der Applikationsoberfl\IeC {\"a}che}}{7}\protected@file@percent }
\newlabel{img:grafik-dummy}{{1}{7}}
\@writefile{toc}{\contentsline {subsection}{\numberline {1.3}Erarbeitung des Papers}{7}\protected@file@percent }
\@writefile{toc}{\contentsline {section}{\numberline {2}Lerntheorien und Zeitmanagement}{8}\protected@file@percent }
\@writefile{toc}{\contentsline {subsection}{\numberline {2.1}Einzelleistung von Henry Behrend}{8}\protected@file@percent }
\@writefile{toc}{\contentsline {subsubsection}{\numberline {2.1.1}Wie habe ich bisher gelernt?}{9}\protected@file@percent }
\@writefile{toc}{\contentsline {subsubsection}{\numberline {2.1.2}Was habe aus den Tutorien und Vorlesungen des Moduls mitgenommen und wie lerne ich jetzt?}{10}\protected@file@percent }
\@writefile{toc}{\contentsline {subsubsection}{\numberline {2.1.3}Begr\IeC {\"u}ndung des eigenen Lernverhaltens}{11}\protected@file@percent }
\@writefile{toc}{\contentsline {subsection}{\numberline {2.2}Einzelleistung von Ching-Chia Lin}{13}\protected@file@percent }
\@writefile{toc}{\contentsline {subsubsection}{\numberline {2.2.1}Wie lerne ich?}{13}\protected@file@percent }
\@writefile{toc}{\contentsline {subsection}{\numberline {2.3}Einzelleistung von Jeremy Kaefert}{16}\protected@file@percent }
\@writefile{toc}{\contentsline {subsubsection}{\numberline {2.3.1}Wie habe ich bisher gelernt?}{16}\protected@file@percent }
\@writefile{toc}{\contentsline {subsubsection}{\numberline {2.3.2}Wie lerne ich jetzt, durch neue Erkenntnisse \IeC {\"u}ber das Lernplakat, dem Auseinandersetzen mit einem individuellen Lernplan und der Analyse der Zeiterfassung?}{17}\protected@file@percent }
\@writefile{toc}{\contentsline {section}{\numberline {3}Reflektion der Gruppenarbeit}{20}\protected@file@percent }
\@writefile{toc}{\contentsline {subsection}{\numberline {3.1}Erstellen der Protokolle}{20}\protected@file@percent }
\@writefile{toc}{\contentsline {subsection}{\numberline {3.2}Reflektion der Arbeitsweise}{21}\protected@file@percent }
\@writefile{toc}{\contentsline {section}{\numberline {4}Literaturverzeichnis}{22}\protected@file@percent }
\@writefile{toc}{\contentsline {section}{\numberline {5}Anhang}{23}\protected@file@percent }
\@writefile{lof}{\contentsline {figure}{\numberline {2}{\ignorespaces Paper}}{24}\protected@file@percent }
\newlabel{img:grafik-dummy}{{2}{24}}
\newlabel{RF1}{25}
\@writefile{lof}{\contentsline {figure}{\numberline {3}{\ignorespaces Lernplakat}}{25}\protected@file@percent }
\newlabel{img:grafik-dummy}{{3}{25}}
\@writefile{lof}{\contentsline {figure}{\numberline {4}{\ignorespaces Lernplan von Ching-Chia Lin}}{26}\protected@file@percent }
\newlabel{img:grafik-dummy}{{4}{26}}
\newlabel{RF2}{27}
\@writefile{lof}{\contentsline {figure}{\numberline {5}{\ignorespaces Lernplan von Jeremy K\IeC {\"a}fert}}{27}\protected@file@percent }
\newlabel{img:grafik-dummy}{{5}{27}}
\newlabel{RF3}{28}
\@writefile{lof}{\contentsline {figure}{\numberline {6}{\ignorespaces Lernplan von Henry Behrend}}{28}\protected@file@percent }
\newlabel{img:grafik-dummy}{{6}{28}}
\@writefile{lof}{\contentsline {figure}{\numberline {7}{\ignorespaces 1.Protokoll}}{29}\protected@file@percent }
\newlabel{img:grafik-dummy}{{7}{29}}
\@writefile{lof}{\contentsline {figure}{\numberline {8}{\ignorespaces 2.Protokoll}}{30}\protected@file@percent }
\newlabel{img:grafik-dummy}{{8}{30}}
\@writefile{lof}{\contentsline {figure}{\numberline {9}{\ignorespaces 3.Protokoll}}{31}\protected@file@percent }
\newlabel{img:grafik-dummy}{{9}{31}}
